id,email,ssn,first name,last name,full address,order date,order amount
381,Kaylah_Hoeger@hotmail.com,546-37-1780,Adonis,Christiansen,1258 Koelpin Point Suite 101,"9/27/2021, 9:20:52 PM",827.49
382,Fausto.Conroy22@gmail.com,215-53-4930,Hilario,Considine,49325 Skiles Brook Apt. 249,"8/13/2021, 2:46:16 AM",35.31
382,Fausto.Conroy22@gmail.com,215-53-4930,Hilario,Considine,49325 Skiles Brook Apt. 249,"11/13/2020, 2:49:29 AM",796.63
384,Ned25@hotmail.com,742-58-3381,Deion,Walter,1014 Brandi Court Apt. 142,"11/17/2020, 2:04:24 PM",405.60
385,Jonathon57@gmail.com,518-90-1791,Aimee,Rolfson,7350 Sarina Heights Apt. 535,"9/18/2021, 8:07:17 PM",82.25
386,Amira_Harris43@hotmail.com,511-47-3284,Magdalen,Ruecker,6224 Osvaldo Mountains Apt. 563,"4/22/2021, 2:40:41 PM",773.83
387,Maudie14@hotmail.com,363-30-2399,Derrick,Homenick,50388 Tavares Plaza Suite 666,"11/15/2020, 3:59:15 PM",364.91
388,Shanelle.Vandervort38@yahoo.com,864-10-6408,Christ,Mueller,4762 Hettinger Rapid Suite 194,"4/25/2021, 4:27:20 PM",15.34
388,Shanelle.Vandervort38@yahoo.com,864-10-6408,Christ,Mueller,4762 Hettinger Rapid Suite 194,"6/25/2021, 7:43:54 AM",7.33
390,Emmalee85@hotmail.com,703-19-7105,Ethyl,Treutel,846 Sawayn Lakes Suite 412,"1/22/2021, 8:45:58 PM",145.72
391,Oral_Hintz@hotmail.com,730-26-1451,Clarabelle,Douglas,537 Satterfield Summit Suite 918,"6/16/2021, 3:12:53 AM",29.51
392,Hazel50@gmail.com,310-10-2430,Elsa,Hackett,50016 Dereck Vista Apt. 004,"12/14/2020, 3:45:43 AM",454.56
392,Hazel50@gmail.com,310-10-2430,Elsa,Hackett,50016 Dereck Vista Apt. 004,"6/4/2021, 12:11:32 AM",289.97
392,Hazel50@gmail.com,310-10-2430,Elsa,Hackett,50016 Dereck Vista Apt. 004,"6/6/2021, 9:53:41 AM",816.03
395,Nathanial.Rutherford@hotmail.com,337-48-5006,Kiara,Heaney,6700 Tess Plaza Apt. 985,"12/5/2020, 9:13:39 PM",850.07
396,Harvey.Walsh50@yahoo.com,100-85-6483,Ken,Borer,4386 Victor Mills Suite 787,"12/10/2020, 2:21:35 PM",752.24
397,Bart_Williamson42@gmail.com,785-78-6855,Alberto,Terry,218 Camren Plaza Apt. 327,"7/10/2021, 4:12:10 AM",320.91
397,Bart_Williamson42@gmail.com,785-78-6855,Alberto,Terry,218 Camren Plaza Apt. 327,"1/31/2021, 5:42:55 AM",768.24
399,Dedric.Reichel78@hotmail.com,302-95-8348,Neil,Pacocha,709 Mollie Unions Apt. 840,"7/28/2021, 7:34:59 PM",568.92
